{
  "hosting": {
    "public": "build/public",
    "ignore": [
      "firebase.json",
      "**/.*",
      "**/node_modules/**"
    ],
    "rewrites": [
      {
        "source": "**/**",
        "function": "app"
      }
    ]
  },
  "functions": {
    "runtime": "nodejs10",
    "source": "."
  }
}
